--------------------------------------------------------------------------
A process has executed an operation involving a call to the
"fork()" system call to create a child process.  Open MPI is currently
operating in a condition that could result in memory corruption or
other system errors; your job may hang, crash, or produce silent
data corruption.  The use of fork() (or system() or other calls that
create child processes) is strongly discouraged.

The process that invoked fork was:

  Local host:          [[64770,1],0] (PID 262829)

If you are *absolutely sure* that your application will successfully
and correctly survive a call to fork(), you may disable this warning
by setting the mpi_warn_on_fork MCA parameter to 0.
--------------------------------------------------------------------------
/beegfs/home/eu/de/haugland/src/pyasdf/pyasdf/asdf_data_set.py:173: ASDFWarning: The file '/beegfs/home/eu/de/haugland/src/adjoint_tomography/seis/raw/C201108231751A.observed.h5' has version number '0.0.2'. The reader expects version '1.0.0'. The program will continue but the result is undefined.
  warnings.warn(msg, ASDFWarning)
