start time is : 14:01:08
Found 328 missing stations
Found 319 missing stations
Found 226 missing stations
Found 339 missing stations
Found 353 missing stations
Found 405 missing stations
Found 320 missing stations
Found 143 missing stations
Found 106 missing stations
Found 425 missing stations
Found 156 missing stations
Found 354 missing stations
Found 284 missing stations
Found 227 missing stations
Found 247 missing stations
Found 181 missing stations
Found 163 missing stations
Found 217 missing stations
Found 349 missing stations
Found 373 missing stations
Found 442 missing stations
Found 441 missing stations
Found 356 missing stations
Found 340 missing stations
Found 431 missing stations
Found 348 missing stations
Found 266 missing stations
Found 610 missing stations
Found 585 missing stations
Found 505 missing stations
Found 412 missing stations
Found 346 missing stations
Found 389 missing stations
Found 382 missing stations
Found 410 missing stations
Found 415 missing stations
Found 578 missing stations
Found 391 missing stations
Found 314 missing stations
Found 272 missing stations
Found 352 missing stations
Found 570 missing stations
Found 289 missing stations
Found 282 missing stations
Found 378 missing stations
Found 458 missing stations
Found 299 missing stations
Found 348 missing stations
Found 704 missing stations
Found 380 missing stations
Found 305 missing stations
Found 751 missing stations
Found 532 missing stations
Found 492 missing stations
Found 480 missing stations
Found 367 missing stations
Found 478 missing stations
Found 304 missing stations
Found 734 missing stations
Found 374 missing stations
Found 386 missing stations
Found 925 missing stations
Found 360 missing stations
Found 990 missing stations
Found 453 missing stations
Found 844 missing stations
Found 608 missing stations
Found 829 missing stations
Found 913 missing stations
Found 707 missing stations
Found 371 missing stations
Found 388 missing stations
Found 478 missing stations
Found 412 missing stations
Found 589 missing stations
Found 783 missing stations
Found 813 missing stations
Found 465 missing stations
Found 960 missing stations
Found 936 missing stations
Found 294 missing stations
Found 419 missing stations
Found 885 missing stations
Found 785 missing stations
Found 662 missing stations
Found 861 missing stations
Found 561 missing stations
Found 856 missing stations
Found 365 missing stations
Found 896 missing stations
Found 584 missing stations
Found 500 missing stations
Found 461 missing stations
Found 384 missing stations
Found 890 missing stations
Found 864 missing stations
Found 631 missing stations
Found 813 missing stations
Found 816 missing stations
Found 796 missing stations
Found 690 missing stations
Found 584 missing stations
Found 1111 missing stations
Found 534 missing stations
Found 703 missing stations
Found 415 missing stations
Found 882 missing stations
Found 392 missing stations
Found 464 missing stations
Found 384 missing stations
Found 702 missing stations
Found 342 missing stations
Found 540 missing stations
Found 438 missing stations
Found 392 missing stations
Found 702 missing stations
Found 542 missing stations
Found 712 missing stations
Found 1052 missing stations
Found 789 missing stations
Found 526 missing stations
Found 366 missing stations
Found 699 missing stations
Found 501 missing stations
Found 726 missing stations
Found 1043 missing stations
Found 990 missing stations
Found 321 missing stations
Found 1156 missing stations
Found 571 missing stations
Found 560 missing stations
Found 577 missing stations
Found 413 missing stations
Found 551 missing stations
Found 604 missing stations
Found 483 missing stations
Found 810 missing stations
Found 674 missing stations
Found 626 missing stations
Found 628 missing stations
Found 821 missing stations
Found 741 missing stations
Found 552 missing stations
Found 897 missing stations
Found 749 missing stations
Found 935 missing stations
Found 767 missing stations
Found 621 missing stations
Found 490 missing stations
Found 610 missing stations
Found 1150 missing stations
Found 922 missing stations
Found 402 missing stations
Found 1179 missing stations
Found 379 missing stations
Found 519 missing stations
Found 408 missing stations
Found 704 missing stations
Found 428 missing stations
Found 433 missing stations
Found 1021 missing stations
Found 689 missing stations
Found 1023 missing stations
Found 766 missing stations
Found 935 missing stations
Found 526 missing stations
Found 861 missing stations
Found 616 missing stations
Found 574 missing stations
Found 608 missing stations
Found 666 missing stations
Found 877 missing stations
Found 635 missing stations
Found 542 missing stations
Found 921 missing stations
Found 504 missing stations
Found 636 missing stations
Found 734 missing stations
Found 404 missing stations
Found 515 missing stations
Found 506 missing stations
Found 545 missing stations
Found 832 missing stations
Found 495 missing stations
Found 866 missing stations
Found 704 missing stations
Found 493 missing stations
Found 533 missing stations
Found 637 missing stations
Found 742 missing stations
Found 1128 missing stations
Found 633 missing stations
Found 641 missing stations
Found 1207 missing stations
Found 657 missing stations
Found 747 missing stations
Found 682 missing stations
Found 562 missing stations
Found 615 missing stations
Found 614 missing stations
Found 815 missing stations
Found 835 missing stations
Found 725 missing stations
Found 552 missing stations
Found 565 missing stations
Found 613 missing stations
Found 425 missing stations
Found 495 missing stations
Found 1088 missing stations
Found 636 missing stations
Found 721 missing stations
Found 590 missing stations
Found 945 missing stations
Found 542 missing stations
Found 579 missing stations
Found 494 missing stations
Found 620 missing stations
Found 615 missing stations
Found 1115 missing stations
Found 782 missing stations
Found 927 missing stations
Found 543 missing stations
Found 957 missing stations
Found 680 missing stations
Found 534 missing stations
Found 704 missing stations
Found 591 missing stations
Found 699 missing stations
Found 732 missing stations
Found 591 missing stations
Found 546 missing stations
Found 760 missing stations
Found 1056 missing stations
Found 491 missing stations
Found 1269 missing stations
Found 1234 missing stations
Found 445 missing stations
Found 1083 missing stations
Found 733 missing stations
Found 590 missing stations
Found 1242 missing stations
Found 672 missing stations
